# 1 "main.c"
# 1 "<built-in>" 1
# 1 "<built-in>" 3
# 331 "<built-in>" 3
# 1 "<command line>" 1
# 1 "<built-in>" 2
# 1 "main.c" 2
# 1 "/usr/include/fcntl.h" 1 3 4
# 23 "/usr/include/fcntl.h" 3 4
# 1 "/usr/include/sys/fcntl.h" 1 3 4
# 78 "/usr/include/sys/fcntl.h" 3 4
# 1 "/usr/include/sys/_types.h" 1 3 4
# 32 "/usr/include/sys/_types.h" 3 4
# 1 "/usr/include/sys/cdefs.h" 1 3 4
# 587 "/usr/include/sys/cdefs.h" 3 4
# 1 "/usr/include/sys/_symbol_aliasing.h" 1 3 4
# 588 "/usr/include/sys/cdefs.h" 2 3 4
# 653 "/usr/include/sys/cdefs.h" 3 4
# 1 "/usr/include/sys/_posix_availability.h" 1 3 4
# 654 "/usr/include/sys/cdefs.h" 2 3 4
# 33 "/usr/include/sys/_types.h" 2 3 4
# 1 "/usr/include/machine/_types.h" 1 3 4
# 32 "/usr/include/machine/_types.h" 3 4
# 1 "/usr/include/i386/_types.h" 1 3 4
# 37 "/usr/include/i386/_types.h" 3 4
typedef signed char __int8_t;



typedef unsigned char __uint8_t;
typedef short __int16_t;
typedef unsigned short __uint16_t;
typedef int __int32_t;
typedef unsigned int __uint32_t;
typedef long long __int64_t;
typedef unsigned long long __uint64_t;

typedef long __darwin_intptr_t;
typedef unsigned int __darwin_natural_t;
# 70 "/usr/include/i386/_types.h" 3 4
typedef int __darwin_ct_rune_t;





typedef union {
 char __mbstate8[128];
 long long _mbstateL;
} __mbstate_t;

typedef __mbstate_t __darwin_mbstate_t;


typedef long int __darwin_ptrdiff_t;







typedef long unsigned int __darwin_size_t;





typedef __builtin_va_list __darwin_va_list;





typedef int __darwin_wchar_t;




typedef __darwin_wchar_t __darwin_rune_t;


typedef int __darwin_wint_t;




typedef unsigned long __darwin_clock_t;
typedef __uint32_t __darwin_socklen_t;
typedef long __darwin_ssize_t;
typedef long __darwin_time_t;
# 33 "/usr/include/machine/_types.h" 2 3 4
# 34 "/usr/include/sys/_types.h" 2 3 4
# 55 "/usr/include/sys/_types.h" 3 4
typedef __int64_t __darwin_blkcnt_t;
typedef __int32_t __darwin_blksize_t;
typedef __int32_t __darwin_dev_t;
typedef unsigned int __darwin_fsblkcnt_t;
typedef unsigned int __darwin_fsfilcnt_t;
typedef __uint32_t __darwin_gid_t;
typedef __uint32_t __darwin_id_t;
typedef __uint64_t __darwin_ino64_t;

typedef __darwin_ino64_t __darwin_ino_t;



typedef __darwin_natural_t __darwin_mach_port_name_t;
typedef __darwin_mach_port_name_t __darwin_mach_port_t;
typedef __uint16_t __darwin_mode_t;
typedef __int64_t __darwin_off_t;
typedef __int32_t __darwin_pid_t;
typedef __uint32_t __darwin_sigset_t;
typedef __int32_t __darwin_suseconds_t;
typedef __uint32_t __darwin_uid_t;
typedef __uint32_t __darwin_useconds_t;
typedef unsigned char __darwin_uuid_t[16];
typedef char __darwin_uuid_string_t[37];


# 1 "/usr/include/sys/_pthread/_pthread_types.h" 1 3 4
# 57 "/usr/include/sys/_pthread/_pthread_types.h" 3 4
struct __darwin_pthread_handler_rec {
 void (*__routine)(void *);
 void *__arg;
 struct __darwin_pthread_handler_rec *__next;
};

struct _opaque_pthread_attr_t {
 long __sig;
 char __opaque[56];
};

struct _opaque_pthread_cond_t {
 long __sig;
 char __opaque[40];
};

struct _opaque_pthread_condattr_t {
 long __sig;
 char __opaque[8];
};

struct _opaque_pthread_mutex_t {
 long __sig;
 char __opaque[56];
};

struct _opaque_pthread_mutexattr_t {
 long __sig;
 char __opaque[8];
};

struct _opaque_pthread_once_t {
 long __sig;
 char __opaque[8];
};

struct _opaque_pthread_rwlock_t {
 long __sig;
 char __opaque[192];
};

struct _opaque_pthread_rwlockattr_t {
 long __sig;
 char __opaque[16];
};

struct _opaque_pthread_t {
 long __sig;
 struct __darwin_pthread_handler_rec *__cleanup_stack;
 char __opaque[8176];
};

typedef struct _opaque_pthread_attr_t __darwin_pthread_attr_t;
typedef struct _opaque_pthread_cond_t __darwin_pthread_cond_t;
typedef struct _opaque_pthread_condattr_t __darwin_pthread_condattr_t;
typedef unsigned long __darwin_pthread_key_t;
typedef struct _opaque_pthread_mutex_t __darwin_pthread_mutex_t;
typedef struct _opaque_pthread_mutexattr_t __darwin_pthread_mutexattr_t;
typedef struct _opaque_pthread_once_t __darwin_pthread_once_t;
typedef struct _opaque_pthread_rwlock_t __darwin_pthread_rwlock_t;
typedef struct _opaque_pthread_rwlockattr_t __darwin_pthread_rwlockattr_t;
typedef struct _opaque_pthread_t *__darwin_pthread_t;
# 81 "/usr/include/sys/_types.h" 2 3 4
# 79 "/usr/include/sys/fcntl.h" 2 3 4

# 1 "/usr/include/Availability.h" 1 3 4
# 190 "/usr/include/Availability.h" 3 4
# 1 "/usr/include/AvailabilityInternal.h" 1 3 4
# 191 "/usr/include/Availability.h" 2 3 4
# 81 "/usr/include/sys/fcntl.h" 2 3 4


# 1 "/usr/include/sys/_types/_size_t.h" 1 3 4
# 30 "/usr/include/sys/_types/_size_t.h" 3 4
typedef __darwin_size_t size_t;
# 84 "/usr/include/sys/fcntl.h" 2 3 4
# 1 "/usr/include/sys/_types/_mode_t.h" 1 3 4
# 30 "/usr/include/sys/_types/_mode_t.h" 3 4
typedef __darwin_mode_t mode_t;
# 85 "/usr/include/sys/fcntl.h" 2 3 4
# 1 "/usr/include/sys/_types/_off_t.h" 1 3 4
# 30 "/usr/include/sys/_types/_off_t.h" 3 4
typedef __darwin_off_t off_t;
# 86 "/usr/include/sys/fcntl.h" 2 3 4
# 1 "/usr/include/sys/_types/_pid_t.h" 1 3 4
# 30 "/usr/include/sys/_types/_pid_t.h" 3 4
typedef __darwin_pid_t pid_t;
# 87 "/usr/include/sys/fcntl.h" 2 3 4
# 116 "/usr/include/sys/fcntl.h" 3 4
# 1 "/usr/include/sys/_types/_o_sync.h" 1 3 4
# 117 "/usr/include/sys/fcntl.h" 2 3 4
# 157 "/usr/include/sys/fcntl.h" 3 4
# 1 "/usr/include/sys/_types/_o_dsync.h" 1 3 4
# 158 "/usr/include/sys/fcntl.h" 2 3 4
# 310 "/usr/include/sys/fcntl.h" 3 4
# 1 "/usr/include/sys/_types/_seek_set.h" 1 3 4
# 311 "/usr/include/sys/fcntl.h" 2 3 4





# 1 "/usr/include/sys/_types/_s_ifmt.h" 1 3 4
# 317 "/usr/include/sys/fcntl.h" 2 3 4
# 335 "/usr/include/sys/fcntl.h" 3 4
struct flock {
 off_t l_start;
 off_t l_len;
 pid_t l_pid;
 short l_type;
 short l_whence;
};


# 1 "/usr/include/sys/_types/_timespec.h" 1 3 4
# 30 "/usr/include/sys/_types/_timespec.h" 3 4
struct timespec
{
 __darwin_time_t tv_sec;
 long tv_nsec;
};
# 344 "/usr/include/sys/fcntl.h" 2 3 4






struct flocktimeout {
 struct flock fl;
 struct timespec timeout;
};
# 363 "/usr/include/sys/fcntl.h" 3 4
struct radvisory {
       off_t ra_offset;
       int ra_count;
};



typedef struct fcodeblobs {
 void *f_cd_hash;
 size_t f_hash_size;
 void *f_cd_buffer;
 size_t f_cd_size;
 unsigned int *f_out_size;
 int f_arch;
 int __padding;
} fcodeblobs_t;
# 387 "/usr/include/sys/fcntl.h" 3 4
typedef struct fsignatures {
 off_t fs_file_start;
 void *fs_blob_start;
 size_t fs_blob_size;
} fsignatures_t;
# 403 "/usr/include/sys/fcntl.h" 3 4
typedef struct fchecklv {
 off_t lv_file_start;
 size_t lv_error_message_size;
 void *lv_error_message;
} fchecklv_t;
# 419 "/usr/include/sys/fcntl.h" 3 4
typedef struct fstore {
 unsigned int fst_flags;
 int fst_posmode;
 off_t fst_offset;
 off_t fst_length;
 off_t fst_bytesalloc;
} fstore_t;


typedef struct fpunchhole {
 unsigned int fp_flags;
 unsigned int reserved;
 off_t fp_offset;
 off_t fp_length;
} fpunchhole_t;


typedef struct ftrimactivefile {
 off_t fta_offset;
 off_t fta_length;
} ftrimactivefile_t;



typedef struct fbootstraptransfer {
  off_t fbt_offset;
  size_t fbt_length;
  void *fbt_buffer;
} fbootstraptransfer_t;
# 471 "/usr/include/sys/fcntl.h" 3 4
#pragma pack(4)

struct log2phys {
 unsigned int l2p_flags;
 off_t l2p_contigbytes;


 off_t l2p_devoffset;


};

#pragma pack()
# 494 "/usr/include/sys/fcntl.h" 3 4
# 1 "/usr/include/sys/_types/_filesec_t.h" 1 3 4
# 30 "/usr/include/sys/_types/_filesec_t.h" 3 4
struct _filesec;
typedef struct _filesec *filesec_t;
# 495 "/usr/include/sys/fcntl.h" 2 3 4

typedef enum {
 FILESEC_OWNER = 1,
 FILESEC_GROUP = 2,
 FILESEC_UUID = 3,
 FILESEC_MODE = 4,
 FILESEC_ACL = 5,
 FILESEC_GRPUUID = 6,


 FILESEC_ACL_RAW = 100,
 FILESEC_ACL_ALLOCSIZE = 101
} filesec_property_t;






int open(const char *, int, ...) __asm("_" "open" );

int openat(int, const char *, int, ...) __asm("_" "openat" ) __attribute__((availability(macosx,introduced=10.10)));

int creat(const char *, mode_t) __asm("_" "creat" );
int fcntl(int, int, ...) __asm("_" "fcntl" );


int openx_np(const char *, int, filesec_t);




int open_dprotected_np ( const char *, int, int, int, ...);
int flock(int, int);
filesec_t filesec_init(void);
filesec_t filesec_dup(filesec_t);
void filesec_free(filesec_t);
int filesec_get_property(filesec_t, filesec_property_t, void *);
int filesec_query_property(filesec_t, filesec_property_t, int *);
int filesec_set_property(filesec_t, filesec_property_t, const void *);
int filesec_unset_property(filesec_t, filesec_property_t) __attribute__((availability(macosx,introduced=10.6)));
# 24 "/usr/include/fcntl.h" 2 3 4
# 2 "main.c" 2
# 1 "/usr/include/sys/types.h" 1 3 4
# 72 "/usr/include/sys/types.h" 3 4
# 1 "/usr/include/sys/appleapiopts.h" 1 3 4
# 73 "/usr/include/sys/types.h" 2 3 4





# 1 "/usr/include/machine/types.h" 1 3 4
# 35 "/usr/include/machine/types.h" 3 4
# 1 "/usr/include/i386/types.h" 1 3 4
# 76 "/usr/include/i386/types.h" 3 4
# 1 "/usr/include/sys/_types/_int8_t.h" 1 3 4
# 30 "/usr/include/sys/_types/_int8_t.h" 3 4
typedef signed char int8_t;
# 77 "/usr/include/i386/types.h" 2 3 4
# 1 "/usr/include/sys/_types/_int16_t.h" 1 3 4
# 30 "/usr/include/sys/_types/_int16_t.h" 3 4
typedef short int16_t;
# 78 "/usr/include/i386/types.h" 2 3 4
# 1 "/usr/include/sys/_types/_int32_t.h" 1 3 4
# 30 "/usr/include/sys/_types/_int32_t.h" 3 4
typedef int int32_t;
# 79 "/usr/include/i386/types.h" 2 3 4
# 1 "/usr/include/sys/_types/_int64_t.h" 1 3 4
# 30 "/usr/include/sys/_types/_int64_t.h" 3 4
typedef long long int64_t;
# 80 "/usr/include/i386/types.h" 2 3 4

# 1 "/usr/include/sys/_types/_u_int8_t.h" 1 3 4
# 30 "/usr/include/sys/_types/_u_int8_t.h" 3 4
typedef unsigned char u_int8_t;
# 82 "/usr/include/i386/types.h" 2 3 4
# 1 "/usr/include/sys/_types/_u_int16_t.h" 1 3 4
# 30 "/usr/include/sys/_types/_u_int16_t.h" 3 4
typedef unsigned short u_int16_t;
# 83 "/usr/include/i386/types.h" 2 3 4
# 1 "/usr/include/sys/_types/_u_int32_t.h" 1 3 4
# 30 "/usr/include/sys/_types/_u_int32_t.h" 3 4
typedef unsigned int u_int32_t;
# 84 "/usr/include/i386/types.h" 2 3 4
# 1 "/usr/include/sys/_types/_u_int64_t.h" 1 3 4
# 30 "/usr/include/sys/_types/_u_int64_t.h" 3 4
typedef unsigned long long u_int64_t;
# 85 "/usr/include/i386/types.h" 2 3 4


typedef int64_t register_t;





# 1 "/usr/include/sys/_types/_intptr_t.h" 1 3 4
# 30 "/usr/include/sys/_types/_intptr_t.h" 3 4
typedef __darwin_intptr_t intptr_t;
# 93 "/usr/include/i386/types.h" 2 3 4
# 1 "/usr/include/sys/_types/_uintptr_t.h" 1 3 4
# 30 "/usr/include/sys/_types/_uintptr_t.h" 3 4
typedef unsigned long uintptr_t;
# 94 "/usr/include/i386/types.h" 2 3 4



typedef u_int64_t user_addr_t;
typedef u_int64_t user_size_t;
typedef int64_t user_ssize_t;
typedef int64_t user_long_t;
typedef u_int64_t user_ulong_t;
typedef int64_t user_time_t;
typedef int64_t user_off_t;







typedef u_int64_t syscall_arg_t;
# 36 "/usr/include/machine/types.h" 2 3 4
# 79 "/usr/include/sys/types.h" 2 3 4


# 1 "/usr/include/machine/endian.h" 1 3 4
# 35 "/usr/include/machine/endian.h" 3 4
# 1 "/usr/include/i386/endian.h" 1 3 4
# 99 "/usr/include/i386/endian.h" 3 4
# 1 "/usr/include/sys/_endian.h" 1 3 4
# 130 "/usr/include/sys/_endian.h" 3 4
# 1 "/usr/include/libkern/_OSByteOrder.h" 1 3 4
# 66 "/usr/include/libkern/_OSByteOrder.h" 3 4
# 1 "/usr/include/libkern/i386/_OSByteOrder.h" 1 3 4
# 44 "/usr/include/libkern/i386/_OSByteOrder.h" 3 4
static inline
__uint16_t
_OSSwapInt16(
    __uint16_t _data
)
{
    return ((__uint16_t)((_data << 8) | (_data >> 8)));
}

static inline
__uint32_t
_OSSwapInt32(
    __uint32_t _data
)
{

    return __builtin_bswap32(_data);




}


static inline
__uint64_t
_OSSwapInt64(
    __uint64_t _data
)
{
    return __builtin_bswap64(_data);
}
# 67 "/usr/include/libkern/_OSByteOrder.h" 2 3 4
# 131 "/usr/include/sys/_endian.h" 2 3 4
# 100 "/usr/include/i386/endian.h" 2 3 4
# 36 "/usr/include/machine/endian.h" 2 3 4
# 82 "/usr/include/sys/types.h" 2 3 4


typedef unsigned char u_char;
typedef unsigned short u_short;
typedef unsigned int u_int;

typedef unsigned long u_long;


typedef unsigned short ushort;
typedef unsigned int uint;


typedef u_int64_t u_quad_t;
typedef int64_t quad_t;
typedef quad_t * qaddr_t;

typedef char * caddr_t;
typedef int32_t daddr_t;


# 1 "/usr/include/sys/_types/_dev_t.h" 1 3 4
# 30 "/usr/include/sys/_types/_dev_t.h" 3 4
typedef __darwin_dev_t dev_t;
# 103 "/usr/include/sys/types.h" 2 3 4

typedef u_int32_t fixpt_t;


# 1 "/usr/include/sys/_types/_blkcnt_t.h" 1 3 4
# 30 "/usr/include/sys/_types/_blkcnt_t.h" 3 4
typedef __darwin_blkcnt_t blkcnt_t;
# 107 "/usr/include/sys/types.h" 2 3 4
# 1 "/usr/include/sys/_types/_blksize_t.h" 1 3 4
# 30 "/usr/include/sys/_types/_blksize_t.h" 3 4
typedef __darwin_blksize_t blksize_t;
# 108 "/usr/include/sys/types.h" 2 3 4
# 1 "/usr/include/sys/_types/_gid_t.h" 1 3 4
# 30 "/usr/include/sys/_types/_gid_t.h" 3 4
typedef __darwin_gid_t gid_t;
# 109 "/usr/include/sys/types.h" 2 3 4
# 1 "/usr/include/sys/_types/_in_addr_t.h" 1 3 4
# 30 "/usr/include/sys/_types/_in_addr_t.h" 3 4
typedef __uint32_t in_addr_t;
# 110 "/usr/include/sys/types.h" 2 3 4
# 1 "/usr/include/sys/_types/_in_port_t.h" 1 3 4
# 30 "/usr/include/sys/_types/_in_port_t.h" 3 4
typedef __uint16_t in_port_t;
# 111 "/usr/include/sys/types.h" 2 3 4
# 1 "/usr/include/sys/_types/_ino_t.h" 1 3 4
# 30 "/usr/include/sys/_types/_ino_t.h" 3 4
typedef __darwin_ino_t ino_t;
# 112 "/usr/include/sys/types.h" 2 3 4


# 1 "/usr/include/sys/_types/_ino64_t.h" 1 3 4
# 30 "/usr/include/sys/_types/_ino64_t.h" 3 4
typedef __darwin_ino64_t ino64_t;
# 115 "/usr/include/sys/types.h" 2 3 4


# 1 "/usr/include/sys/_types/_key_t.h" 1 3 4
# 30 "/usr/include/sys/_types/_key_t.h" 3 4
typedef __int32_t key_t;
# 118 "/usr/include/sys/types.h" 2 3 4

# 1 "/usr/include/sys/_types/_nlink_t.h" 1 3 4
# 30 "/usr/include/sys/_types/_nlink_t.h" 3 4
typedef __uint16_t nlink_t;
# 120 "/usr/include/sys/types.h" 2 3 4
# 1 "/usr/include/sys/_types/_id_t.h" 1 3 4
# 30 "/usr/include/sys/_types/_id_t.h" 3 4
typedef __darwin_id_t id_t;
# 121 "/usr/include/sys/types.h" 2 3 4



typedef int32_t segsz_t;
typedef int32_t swblk_t;


# 1 "/usr/include/sys/_types/_uid_t.h" 1 3 4
# 30 "/usr/include/sys/_types/_uid_t.h" 3 4
typedef __darwin_uid_t uid_t;
# 128 "/usr/include/sys/types.h" 2 3 4
# 161 "/usr/include/sys/types.h" 3 4
# 1 "/usr/include/sys/_types/_clock_t.h" 1 3 4
# 30 "/usr/include/sys/_types/_clock_t.h" 3 4
typedef __darwin_clock_t clock_t;
# 162 "/usr/include/sys/types.h" 2 3 4

# 1 "/usr/include/sys/_types/_ssize_t.h" 1 3 4
# 30 "/usr/include/sys/_types/_ssize_t.h" 3 4
typedef __darwin_ssize_t ssize_t;
# 164 "/usr/include/sys/types.h" 2 3 4
# 1 "/usr/include/sys/_types/_time_t.h" 1 3 4
# 30 "/usr/include/sys/_types/_time_t.h" 3 4
typedef __darwin_time_t time_t;
# 165 "/usr/include/sys/types.h" 2 3 4

# 1 "/usr/include/sys/_types/_useconds_t.h" 1 3 4
# 30 "/usr/include/sys/_types/_useconds_t.h" 3 4
typedef __darwin_useconds_t useconds_t;
# 167 "/usr/include/sys/types.h" 2 3 4
# 1 "/usr/include/sys/_types/_suseconds_t.h" 1 3 4
# 30 "/usr/include/sys/_types/_suseconds_t.h" 3 4
typedef __darwin_suseconds_t suseconds_t;
# 168 "/usr/include/sys/types.h" 2 3 4


# 1 "/usr/include/sys/_types/_rsize_t.h" 1 3 4
# 30 "/usr/include/sys/_types/_rsize_t.h" 3 4
typedef __darwin_size_t rsize_t;
# 171 "/usr/include/sys/types.h" 2 3 4
# 1 "/usr/include/sys/_types/_errno_t.h" 1 3 4
# 30 "/usr/include/sys/_types/_errno_t.h" 3 4
typedef int errno_t;
# 172 "/usr/include/sys/types.h" 2 3 4








# 1 "/usr/include/sys/_types/_fd_def.h" 1 3 4
# 46 "/usr/include/sys/_types/_fd_def.h" 3 4
typedef struct fd_set {
 __int32_t fds_bits[((((1024) % ((sizeof(__int32_t) * 8))) == 0) ? ((1024) / ((sizeof(__int32_t) * 8))) : (((1024) / ((sizeof(__int32_t) * 8))) + 1))];
} fd_set;



static __inline int
__darwin_fd_isset(int _n, const struct fd_set *_p)
{
 return (_p->fds_bits[(unsigned long)_n/(sizeof(__int32_t) * 8)] & ((__int32_t)(((unsigned long)1)<<((unsigned long)_n % (sizeof(__int32_t) * 8)))));
}
# 181 "/usr/include/sys/types.h" 2 3 4




typedef __int32_t fd_mask;








# 1 "/usr/include/sys/_types/_fd_setsize.h" 1 3 4
# 194 "/usr/include/sys/types.h" 2 3 4
# 1 "/usr/include/sys/_types/_fd_set.h" 1 3 4
# 195 "/usr/include/sys/types.h" 2 3 4
# 1 "/usr/include/sys/_types/_fd_clr.h" 1 3 4
# 196 "/usr/include/sys/types.h" 2 3 4
# 1 "/usr/include/sys/_types/_fd_zero.h" 1 3 4
# 197 "/usr/include/sys/types.h" 2 3 4
# 1 "/usr/include/sys/_types/_fd_isset.h" 1 3 4
# 198 "/usr/include/sys/types.h" 2 3 4


# 1 "/usr/include/sys/_types/_fd_copy.h" 1 3 4
# 201 "/usr/include/sys/types.h" 2 3 4
# 211 "/usr/include/sys/types.h" 3 4
# 1 "/usr/include/sys/_pthread/_pthread_attr_t.h" 1 3 4
# 30 "/usr/include/sys/_pthread/_pthread_attr_t.h" 3 4
typedef __darwin_pthread_attr_t pthread_attr_t;
# 212 "/usr/include/sys/types.h" 2 3 4
# 1 "/usr/include/sys/_pthread/_pthread_cond_t.h" 1 3 4
# 30 "/usr/include/sys/_pthread/_pthread_cond_t.h" 3 4
typedef __darwin_pthread_cond_t pthread_cond_t;
# 213 "/usr/include/sys/types.h" 2 3 4
# 1 "/usr/include/sys/_pthread/_pthread_condattr_t.h" 1 3 4
# 30 "/usr/include/sys/_pthread/_pthread_condattr_t.h" 3 4
typedef __darwin_pthread_condattr_t pthread_condattr_t;
# 214 "/usr/include/sys/types.h" 2 3 4
# 1 "/usr/include/sys/_pthread/_pthread_mutex_t.h" 1 3 4
# 30 "/usr/include/sys/_pthread/_pthread_mutex_t.h" 3 4
typedef __darwin_pthread_mutex_t pthread_mutex_t;
# 215 "/usr/include/sys/types.h" 2 3 4
# 1 "/usr/include/sys/_pthread/_pthread_mutexattr_t.h" 1 3 4
# 30 "/usr/include/sys/_pthread/_pthread_mutexattr_t.h" 3 4
typedef __darwin_pthread_mutexattr_t pthread_mutexattr_t;
# 216 "/usr/include/sys/types.h" 2 3 4
# 1 "/usr/include/sys/_pthread/_pthread_once_t.h" 1 3 4
# 30 "/usr/include/sys/_pthread/_pthread_once_t.h" 3 4
typedef __darwin_pthread_once_t pthread_once_t;
# 217 "/usr/include/sys/types.h" 2 3 4
# 1 "/usr/include/sys/_pthread/_pthread_rwlock_t.h" 1 3 4
# 30 "/usr/include/sys/_pthread/_pthread_rwlock_t.h" 3 4
typedef __darwin_pthread_rwlock_t pthread_rwlock_t;
# 218 "/usr/include/sys/types.h" 2 3 4
# 1 "/usr/include/sys/_pthread/_pthread_rwlockattr_t.h" 1 3 4
# 30 "/usr/include/sys/_pthread/_pthread_rwlockattr_t.h" 3 4
typedef __darwin_pthread_rwlockattr_t pthread_rwlockattr_t;
# 219 "/usr/include/sys/types.h" 2 3 4
# 1 "/usr/include/sys/_pthread/_pthread_t.h" 1 3 4
# 30 "/usr/include/sys/_pthread/_pthread_t.h" 3 4
typedef __darwin_pthread_t pthread_t;
# 220 "/usr/include/sys/types.h" 2 3 4



# 1 "/usr/include/sys/_pthread/_pthread_key_t.h" 1 3 4
# 30 "/usr/include/sys/_pthread/_pthread_key_t.h" 3 4
typedef __darwin_pthread_key_t pthread_key_t;
# 224 "/usr/include/sys/types.h" 2 3 4




# 1 "/usr/include/sys/_types/_fsblkcnt_t.h" 1 3 4
# 30 "/usr/include/sys/_types/_fsblkcnt_t.h" 3 4
typedef __darwin_fsblkcnt_t fsblkcnt_t;
# 229 "/usr/include/sys/types.h" 2 3 4
# 1 "/usr/include/sys/_types/_fsfilcnt_t.h" 1 3 4
# 30 "/usr/include/sys/_types/_fsfilcnt_t.h" 3 4
typedef __darwin_fsfilcnt_t fsfilcnt_t;
# 230 "/usr/include/sys/types.h" 2 3 4
# 3 "main.c" 2
# 1 "/usr/include/sys/stat.h" 1 3 4
# 110 "/usr/include/sys/stat.h" 3 4
struct ostat {
 __uint16_t st_dev;
 ino_t st_ino;
 mode_t st_mode;
 nlink_t st_nlink;
 __uint16_t st_uid;
 __uint16_t st_gid;
 __uint16_t st_rdev;
 __int32_t st_size;
 struct timespec st_atimespec;
 struct timespec st_mtimespec;
 struct timespec st_ctimespec;
 __int32_t st_blksize;
 __int32_t st_blocks;
 __uint32_t st_flags;
 __uint32_t st_gen;
};
# 182 "/usr/include/sys/stat.h" 3 4
struct stat { dev_t st_dev; mode_t st_mode; nlink_t st_nlink; __darwin_ino64_t st_ino; uid_t st_uid; gid_t st_gid; dev_t st_rdev; struct timespec st_atimespec; struct timespec st_mtimespec; struct timespec st_ctimespec; struct timespec st_birthtimespec; off_t st_size; blkcnt_t st_blocks; blksize_t st_blksize; __uint32_t st_flags; __uint32_t st_gen; __int32_t st_lspare; __int64_t st_qspare[2]; };
# 221 "/usr/include/sys/stat.h" 3 4
struct stat64 { dev_t st_dev; mode_t st_mode; nlink_t st_nlink; __darwin_ino64_t st_ino; uid_t st_uid; gid_t st_gid; dev_t st_rdev; struct timespec st_atimespec; struct timespec st_mtimespec; struct timespec st_ctimespec; struct timespec st_birthtimespec; off_t st_size; blkcnt_t st_blocks; blksize_t st_blksize; __uint32_t st_flags; __uint32_t st_gen; __int32_t st_lspare; __int64_t st_qspare[2]; };
# 352 "/usr/include/sys/stat.h" 3 4
int chmod(const char *, mode_t) __asm("_" "chmod" );
int fchmod(int, mode_t) __asm("_" "fchmod" );
int fstat(int, struct stat *) __asm("_" "fstat" "$INODE64");
int lstat(const char *, struct stat *) __asm("_" "lstat" "$INODE64");
int mkdir(const char *, mode_t);
int mkfifo(const char *, mode_t);
int stat(const char *, struct stat *) __asm("_" "stat" "$INODE64");
int mknod(const char *, mode_t, dev_t);
mode_t umask(mode_t);


int fchmodat(int, const char *, mode_t, int) __attribute__((availability(macosx,introduced=10.10)));
int fstatat(int, const char *, struct stat *, int) __asm("_" "fstatat" "$INODE64") __attribute__((availability(macosx,introduced=10.10)));
int mkdirat(int, const char *, mode_t) __attribute__((availability(macosx,introduced=10.10)));






int chflags(const char *, __uint32_t);
int chmodx_np(const char *, filesec_t);
int fchflags(int, __uint32_t);
int fchmodx_np(int, filesec_t);
int fstatx_np(int, struct stat *, filesec_t) __asm("_" "fstatx_np" "$INODE64");
int lchflags(const char *, __uint32_t) __attribute__((availability(macosx,introduced=10.5)));
int lchmod(const char *, mode_t) __attribute__((availability(macosx,introduced=10.5)));
int lstatx_np(const char *, struct stat *, filesec_t) __asm("_" "lstatx_np" "$INODE64");
int mkdirx_np(const char *, filesec_t);
int mkfifox_np(const char *, filesec_t);
int statx_np(const char *, struct stat *, filesec_t) __asm("_" "statx_np" "$INODE64");
int umaskx_np(filesec_t) __attribute__((availability(macosx,introduced=10.4,deprecated=10.6)));



int fstatx64_np(int, struct stat64 *, filesec_t) __attribute__((availability(macosx,introduced=10.5,deprecated=10.6)));
int lstatx64_np(const char *, struct stat64 *, filesec_t) __attribute__((availability(macosx,introduced=10.5,deprecated=10.6)));
int statx64_np(const char *, struct stat64 *, filesec_t) __attribute__((availability(macosx,introduced=10.5,deprecated=10.6)));
int fstat64(int, struct stat64 *) __attribute__((availability(macosx,introduced=10.5,deprecated=10.6)));
int lstat64(const char *, struct stat64 *) __attribute__((availability(macosx,introduced=10.5,deprecated=10.6)));
int stat64(const char *, struct stat64 *) __attribute__((availability(macosx,introduced=10.5,deprecated=10.6)));
# 4 "main.c" 2
# 1 "/usr/include/unistd.h" 1 3 4
# 71 "/usr/include/unistd.h" 3 4
# 1 "/usr/include/_types.h" 1 3 4
# 39 "/usr/include/_types.h" 3 4
typedef int __darwin_nl_item;
typedef int __darwin_wctrans_t;

typedef __uint32_t __darwin_wctype_t;
# 72 "/usr/include/unistd.h" 2 3 4
# 1 "/usr/include/sys/unistd.h" 1 3 4
# 84 "/usr/include/sys/unistd.h" 3 4
# 1 "/usr/include/sys/_types/_posix_vdisable.h" 1 3 4
# 85 "/usr/include/sys/unistd.h" 2 3 4
# 122 "/usr/include/sys/unistd.h" 3 4
# 1 "/usr/include/sys/_types/_seek_set.h" 1 3 4
# 123 "/usr/include/sys/unistd.h" 2 3 4
# 132 "/usr/include/sys/unistd.h" 3 4
struct accessx_descriptor {
 unsigned int ad_name_offset;
 int ad_flags;
 int ad_pad[2];
};
# 181 "/usr/include/sys/unistd.h" 3 4
# 1 "/usr/include/_types/_uint64_t.h" 1 3 4
# 31 "/usr/include/_types/_uint64_t.h" 3 4
typedef unsigned long long uint64_t;
# 182 "/usr/include/sys/unistd.h" 2 3 4




int getattrlistbulk(int, void *, void *, size_t, uint64_t) __attribute__((availability(macosx,introduced=10.10)));
# 204 "/usr/include/sys/unistd.h" 3 4
int faccessat(int, const char *, int, int) __attribute__((availability(macosx,introduced=10.10)));
int fchownat(int, const char *, uid_t, gid_t, int) __attribute__((availability(macosx,introduced=10.10)));
int linkat(int, const char *, int, const char *, int) __attribute__((availability(macosx,introduced=10.10)));
ssize_t readlinkat(int, const char *, char *, size_t) __attribute__((availability(macosx,introduced=10.10)));
int symlinkat(const char *, int, const char *) __attribute__((availability(macosx,introduced=10.10)));
int unlinkat(int, const char *, int) __attribute__((availability(macosx,introduced=10.10)));
int getattrlistat(int, const char *, void *, void *, size_t, unsigned long) __attribute__((availability(macosx,introduced=10.10)));
# 73 "/usr/include/unistd.h" 2 3 4
# 84 "/usr/include/unistd.h" 3 4
# 1 "/usr/include/sys/_types/_null.h" 1 3 4
# 85 "/usr/include/unistd.h" 2 3 4
# 429 "/usr/include/unistd.h" 3 4
void _exit(int) __attribute__((noreturn));
int access(const char *, int);
unsigned int
  alarm(unsigned int);
int chdir(const char *);
int chown(const char *, uid_t, gid_t);

int close(int) __asm("_" "close" );

int dup(int);
int dup2(int, int);
int execl(const char * __path, const char * __arg0, ...) __attribute__((availability(watchos,unavailable))) __attribute__((availability(tvos,unavailable)));
int execle(const char * __path, const char * __arg0, ...) __attribute__((availability(watchos,unavailable))) __attribute__((availability(tvos,unavailable)));
int execlp(const char * __file, const char * __arg0, ...) __attribute__((availability(watchos,unavailable))) __attribute__((availability(tvos,unavailable)));
int execv(const char * __path, char * const * __argv) __attribute__((availability(watchos,unavailable))) __attribute__((availability(tvos,unavailable)));
int execve(const char * __file, char * const * __argv, char * const * __envp) __attribute__((availability(watchos,unavailable))) __attribute__((availability(tvos,unavailable)));
int execvp(const char * __file, char * const * __argv) __attribute__((availability(watchos,unavailable))) __attribute__((availability(tvos,unavailable)));
pid_t fork(void) __attribute__((availability(watchos,unavailable))) __attribute__((availability(tvos,unavailable)));
long fpathconf(int, int);
char *getcwd(char *, size_t);
gid_t getegid(void);
uid_t geteuid(void);
gid_t getgid(void);



int getgroups(int, gid_t []);

char *getlogin(void);
pid_t getpgrp(void);
pid_t getpid(void);
pid_t getppid(void);
uid_t getuid(void);
int isatty(int);
int link(const char *, const char *);
off_t lseek(int, off_t, int);
long pathconf(const char *, int);

int pause(void) __asm("_" "pause" );

int pipe(int [2]);

ssize_t read(int, void *, size_t) __asm("_" "read" );

int rmdir(const char *);
int setgid(gid_t);
int setpgid(pid_t, pid_t);
pid_t setsid(void);
int setuid(uid_t);

unsigned int
  sleep(unsigned int) __asm("_" "sleep" );

long sysconf(int);
pid_t tcgetpgrp(int);
int tcsetpgrp(int, pid_t);
char *ttyname(int);


int ttyname_r(int, char *, size_t) __asm("_" "ttyname_r" );




int unlink(const char *);

ssize_t write(int __fd, const void * __buf, size_t __nbyte) __asm("_" "write" );
# 506 "/usr/include/unistd.h" 3 4
size_t confstr(int, char *, size_t) __asm("_" "confstr" );

int getopt(int, char * const [], const char *) __asm("_" "getopt" );

extern char *optarg;
extern int optind, opterr, optopt;
# 536 "/usr/include/unistd.h" 3 4
__attribute__((deprecated)) __attribute__((availability(watchos,unavailable))) __attribute__((availability(tvos,unavailable)))

void *brk(const void *);
int chroot(const char *) ;


char *crypt(const char *, const char *);



char *ctermid(char *);


void encrypt(char *, int) __asm("_" "encrypt" );



int fchdir(int);
long gethostid(void);
pid_t getpgid(pid_t);
pid_t getsid(pid_t);



int getdtablesize(void) ;
int getpagesize(void) __attribute__((const)) ;
char *getpass(const char *) ;




char *getwd(char *) ;


int lchown(const char *, uid_t, gid_t) __asm("_" "lchown" );

int lockf(int, int, off_t) __asm("_" "lockf" );

int nice(int) __asm("_" "nice" );

ssize_t pread(int __fd, void * __buf, size_t __nbyte, off_t __offset) __asm("_" "pread" );

ssize_t pwrite(int __fd, const void * __buf, size_t __nbyte, off_t __offset) __asm("_" "pwrite" );






__attribute__((deprecated)) __attribute__((availability(watchos,unavailable))) __attribute__((availability(tvos,unavailable)))

void *sbrk(int);



pid_t setpgrp(void) __asm("_" "setpgrp" );




int setregid(gid_t, gid_t) __asm("_" "setregid" );

int setreuid(uid_t, uid_t) __asm("_" "setreuid" );

void swab(const void * restrict, void * restrict, ssize_t);
void sync(void);
int truncate(const char *, off_t);
useconds_t ualarm(useconds_t, useconds_t);
int usleep(useconds_t) __asm("_" "usleep" );
pid_t vfork(void) __attribute__((availability(watchos,unavailable))) __attribute__((availability(tvos,unavailable)));


int fsync(int) __asm("_" "fsync" );

int ftruncate(int, off_t);
int getlogin_r(char *, size_t);
# 624 "/usr/include/unistd.h" 3 4
int fchown(int, uid_t, gid_t);
int gethostname(char *, size_t);
ssize_t readlink(const char * restrict, char * restrict, size_t);
int setegid(gid_t);
int seteuid(uid_t);
int symlink(const char *, const char *);
# 638 "/usr/include/unistd.h" 3 4
# 1 "/usr/include/sys/select.h" 1 3 4
# 77 "/usr/include/sys/select.h" 3 4
# 1 "/usr/include/sys/_types/_timeval.h" 1 3 4
# 30 "/usr/include/sys/_types/_timeval.h" 3 4
struct timeval
{
 __darwin_time_t tv_sec;
 __darwin_suseconds_t tv_usec;
};
# 78 "/usr/include/sys/select.h" 2 3 4








# 1 "/usr/include/sys/_types/_sigset_t.h" 1 3 4
# 30 "/usr/include/sys/_types/_sigset_t.h" 3 4
typedef __darwin_sigset_t sigset_t;
# 87 "/usr/include/sys/select.h" 2 3 4
# 114 "/usr/include/sys/select.h" 3 4
int pselect(int, fd_set * restrict, fd_set * restrict,
  fd_set * restrict, const struct timespec * restrict,
  const sigset_t * restrict)




  __asm("_" "pselect" "$1050")




  ;



# 1 "/usr/include/sys/_select.h" 1 3 4
# 39 "/usr/include/sys/_select.h" 3 4
int select(int, fd_set * restrict, fd_set * restrict,
  fd_set * restrict, struct timeval * restrict)




  __asm("_" "select" "$1050")




  ;
# 130 "/usr/include/sys/select.h" 2 3 4
# 639 "/usr/include/unistd.h" 2 3 4



# 1 "/usr/include/sys/_types/_uuid_t.h" 1 3 4
# 30 "/usr/include/sys/_types/_uuid_t.h" 3 4
typedef __darwin_uuid_t uuid_t;
# 643 "/usr/include/unistd.h" 2 3 4


void _Exit(int) __attribute__((noreturn));
int accessx_np(const struct accessx_descriptor *, size_t, int *, uid_t);
int acct(const char *);
int add_profil(char *, size_t, unsigned long, unsigned int) __attribute__((availability(watchos,unavailable))) __attribute__((availability(tvos,unavailable)));
void endusershell(void);
int execvP(const char * __file, const char * __searchpath, char * const * __argv) __attribute__((availability(watchos,unavailable))) __attribute__((availability(tvos,unavailable)));
char *fflagstostr(unsigned long);
int getdomainname(char *, int);
int getgrouplist(const char *, int, int *, int *);





# 1 "/usr/include/gethostuuid.h" 1 3 4
# 39 "/usr/include/gethostuuid.h" 3 4
int gethostuuid(uuid_t, const struct timespec *) __attribute__((availability(macosx,introduced=10.5)));
# 659 "/usr/include/unistd.h" 2 3 4




mode_t getmode(const void *, mode_t);
int getpeereid(int, uid_t *, gid_t *);
int getsgroups_np(int *, uuid_t);
char *getusershell(void);
int getwgroups_np(int *, uuid_t);
int initgroups(const char *, int);
int issetugid(void);
char *mkdtemp(char *);
int mknod(const char *, mode_t, dev_t);
int mkpath_np(const char *path, mode_t omode) __attribute__((availability(macosx,introduced=10.8)));
int mkpathat_np(int dfd, const char *path, mode_t omode)
  __attribute__((availability(macosx,introduced=10.12))) __attribute__((availability(ios,introduced=10.0)))
  __attribute__((availability(tvos,introduced=10.0))) __attribute__((availability(watchos,introduced=3.0)));
int mkstemp(char *);
int mkstemps(char *, int);
char *mktemp(char *);
int mkostemp(char *path, int oflags)
  __attribute__((availability(macosx,introduced=10.12))) __attribute__((availability(ios,introduced=10.0)))
  __attribute__((availability(tvos,introduced=10.0))) __attribute__((availability(watchos,introduced=3.0)));
int mkostemps(char *path, int slen, int oflags)
  __attribute__((availability(macosx,introduced=10.12))) __attribute__((availability(ios,introduced=10.0)))
  __attribute__((availability(tvos,introduced=10.0))) __attribute__((availability(watchos,introduced=3.0)));

int mkstemp_dprotected_np(char *path, int dpclass, int dpflags)
  __attribute__((availability(macosx,unavailable))) __attribute__((availability(ios,introduced=10.0)))
  __attribute__((availability(tvos,introduced=10.0))) __attribute__((availability(watchos,introduced=3.0)));
int nfssvc(int, void *);
int profil(char *, size_t, unsigned long, unsigned int);
int pthread_setugid_np(uid_t, gid_t);
int pthread_getugid_np( uid_t *, gid_t *);
int reboot(int);
int revoke(const char *);

__attribute__((deprecated)) int rcmd(char **, int, const char *, const char *, const char *, int *);
__attribute__((deprecated)) int rcmd_af(char **, int, const char *, const char *, const char *, int *,
  int);
__attribute__((deprecated)) int rresvport(int *);
__attribute__((deprecated)) int rresvport_af(int *, int);
__attribute__((deprecated)) int iruserok(unsigned long, int, const char *, const char *);
__attribute__((deprecated)) int iruserok_sa(const void *, int, int, const char *, const char *);
__attribute__((deprecated)) int ruserok(const char *, int, const char *, const char *);

int setdomainname(const char *, int);
int setgroups(int, const gid_t *);
void sethostid(long);
int sethostname(const char *, int);

void setkey(const char *) __asm("_" "setkey" );



int setlogin(const char *);
void *setmode(const char *) __asm("_" "setmode" );
int setrgid(gid_t);
int setruid(uid_t);
int setsgroups_np(int, const uuid_t);
void setusershell(void);
int setwgroups_np(int, const uuid_t);
int strtofflags(char **, unsigned long *, unsigned long *);
int swapon(const char *);
int ttyslot(void);
int undelete(const char *);
int unwhiteout(const char *);
void *valloc(size_t);

__attribute__((availability(watchos,unavailable))) __attribute__((availability(tvos,unavailable)))
__attribute__((availability(ios,deprecated=10.0,message="syscall(2) is unsupported; " "please switch to a supported interface. For SYS_kdebug_trace use kdebug_signpost().")))

__attribute__((availability(macosx,deprecated=10.12,message="syscall(2) is unsupported; " "please switch to a supported interface. For SYS_kdebug_trace use kdebug_signpost().")))

int syscall(int, ...);

extern char *suboptarg;
int getsubopt(char **, char * const *, char **);



int fgetattrlist(int,void*,void*,size_t,unsigned int) __attribute__((availability(macosx,introduced=10.6)));
int fsetattrlist(int,void*,void*,size_t,unsigned int) __attribute__((availability(macosx,introduced=10.6)));
int getattrlist(const char*,void*,void*,size_t,unsigned int) __asm("_" "getattrlist" );
int setattrlist(const char*,void*,void*,size_t,unsigned int) __asm("_" "setattrlist" );
int exchangedata(const char*,const char*,unsigned int) __attribute__((availability(watchos,unavailable))) __attribute__((availability(tvos,unavailable)));
int getdirentriesattr(int,void*,void*,size_t,unsigned int*,unsigned int*,unsigned int*,unsigned int) __attribute__((availability(watchos,unavailable))) __attribute__((availability(tvos,unavailable)));
# 757 "/usr/include/unistd.h" 3 4
struct fssearchblock;
struct searchstate;

int searchfs(const char *, struct fssearchblock *, unsigned long *, unsigned int, unsigned int, struct searchstate *) __attribute__((availability(watchos,unavailable))) __attribute__((availability(tvos,unavailable)));
int fsctl(const char *,unsigned long,void*,unsigned int);
int ffsctl(int,unsigned long,void*,unsigned int) __attribute__((availability(macosx,introduced=10.6)));




int fsync_volume_np(int, int) __attribute__((availability(macosx,introduced=10.8)));
int sync_volume_np(const char *, int) __attribute__((availability(macosx,introduced=10.8)));

extern int optreset;
# 5 "main.c" 2
# 1 "/usr/include/stdio.h" 1 3 4
# 71 "/usr/include/stdio.h" 3 4
# 1 "/usr/include/sys/_types/_va_list.h" 1 3 4
# 31 "/usr/include/sys/_types/_va_list.h" 3 4
typedef __darwin_va_list va_list;
# 72 "/usr/include/stdio.h" 2 3 4



# 1 "/usr/include/sys/stdio.h" 1 3 4
# 39 "/usr/include/sys/stdio.h" 3 4
int renameat(int, const char *, int, const char *) __attribute__((availability(macosx,introduced=10.10)));






int renamex_np(const char *, const char *, unsigned int) __attribute__((availability(macosx,introduced=10.12))) __attribute__((availability(ios,introduced=10.0))) __attribute__((availability(tvos,introduced=10.0))) __attribute__((availability(watchos,introduced=3.0)));
int renameatx_np(int, const char *, int, const char *, unsigned int) __attribute__((availability(macosx,introduced=10.12))) __attribute__((availability(ios,introduced=10.0))) __attribute__((availability(tvos,introduced=10.0))) __attribute__((availability(watchos,introduced=3.0)));
# 76 "/usr/include/stdio.h" 2 3 4

typedef __darwin_off_t fpos_t;
# 88 "/usr/include/stdio.h" 3 4
struct __sbuf {
 unsigned char *_base;
 int _size;
};


struct __sFILEX;
# 122 "/usr/include/stdio.h" 3 4
typedef struct __sFILE {
 unsigned char *_p;
 int _r;
 int _w;
 short _flags;
 short _file;
 struct __sbuf _bf;
 int _lbfsize;


 void *_cookie;
 int (* _Nullable _close)(void *);
 int (* _Nullable _read) (void *, char *, int);
 fpos_t (* _Nullable _seek) (void *, fpos_t, int);
 int (* _Nullable _write)(void *, const char *, int);


 struct __sbuf _ub;
 struct __sFILEX *_extra;
 int _ur;


 unsigned char _ubuf[3];
 unsigned char _nbuf[1];


 struct __sbuf _lb;


 int _blksize;
 fpos_t _offset;
} FILE;


extern FILE *__stdinp;
extern FILE *__stdoutp;
extern FILE *__stderrp;
# 231 "/usr/include/stdio.h" 3 4
void clearerr(FILE *);
int fclose(FILE *);
int feof(FILE *);
int ferror(FILE *);
int fflush(FILE *);
int fgetc(FILE *);
int fgetpos(FILE * restrict, fpos_t *);
char *fgets(char * restrict, int, FILE *);



FILE *fopen(const char * restrict __filename, const char * restrict __mode) __asm("_" "fopen" );

int fprintf(FILE * restrict, const char * restrict, ...) __attribute__((__format__ (__printf__, 2, 3)));
int fputc(int, FILE *);
int fputs(const char * restrict, FILE * restrict) __asm("_" "fputs" );
size_t fread(void * restrict __ptr, size_t __size, size_t __nitems, FILE * restrict __stream);
FILE *freopen(const char * restrict, const char * restrict,
                 FILE * restrict) __asm("_" "freopen" );
int fscanf(FILE * restrict, const char * restrict, ...) __attribute__((__format__ (__scanf__, 2, 3)));
int fseek(FILE *, long, int);
int fsetpos(FILE *, const fpos_t *);
long ftell(FILE *);
size_t fwrite(const void * restrict __ptr, size_t __size, size_t __nitems, FILE * restrict __stream) __asm("_" "fwrite" );
int getc(FILE *);
int getchar(void);
char *gets(char *);
void perror(const char *);
int printf(const char * restrict, ...) __attribute__((__format__ (__printf__, 1, 2)));
int putc(int, FILE *);
int putchar(int);
int puts(const char *);
int remove(const char *);
int rename (const char *__old, const char *__new);
void rewind(FILE *);
int scanf(const char * restrict, ...) __attribute__((__format__ (__scanf__, 1, 2)));
void setbuf(FILE * restrict, char * restrict);
int setvbuf(FILE * restrict, char * restrict, int, size_t);
int sprintf(char * restrict, const char * restrict, ...) __attribute__((__format__ (__printf__, 2, 3))) __attribute__((__availability__(swift, unavailable, message="Use snprintf instead.")));
int sscanf(const char * restrict, const char * restrict, ...) __attribute__((__format__ (__scanf__, 2, 3)));
FILE *tmpfile(void);

__attribute__((__availability__(swift, unavailable, message="Use mkstemp(3) instead.")))

__attribute__((deprecated("This function is provided for compatibility reasons only.  Due to security concerns inherent in the design of tmpnam(3), it is highly recommended that you use mkstemp(3) instead.")))

char *tmpnam(char *);
int ungetc(int, FILE *);
int vfprintf(FILE * restrict, const char * restrict, va_list) __attribute__((__format__ (__printf__, 2, 0)));
int vprintf(const char * restrict, va_list) __attribute__((__format__ (__printf__, 1, 0)));
int vsprintf(char * restrict, const char * restrict, va_list) __attribute__((__format__ (__printf__, 2, 0))) __attribute__((__availability__(swift, unavailable, message="Use vsnprintf instead.")));
# 303 "/usr/include/stdio.h" 3 4
FILE *fdopen(int, const char *) __asm("_" "fdopen" );

int fileno(FILE *);
# 321 "/usr/include/stdio.h" 3 4
int pclose(FILE *) __attribute__((__availability__(swift, unavailable, message="Use posix_spawn APIs or NSTask instead.")));



FILE *popen(const char *, const char *) __asm("_" "popen" ) __attribute__((__availability__(swift, unavailable, message="Use posix_spawn APIs or NSTask instead.")));
# 342 "/usr/include/stdio.h" 3 4
int __srget(FILE *);
int __svfscanf(FILE *, const char *, va_list) __attribute__((__format__ (__scanf__, 2, 0)));
int __swbuf(int, FILE *);
# 353 "/usr/include/stdio.h" 3 4
inline __attribute__ ((__always_inline__)) int __sputc(int _c, FILE *_p) {
 if (--_p->_w >= 0 || (_p->_w >= _p->_lbfsize && (char)_c != '\n'))
  return (*_p->_p++ = _c);
 else
  return (__swbuf(_c, _p));
}
# 379 "/usr/include/stdio.h" 3 4
void flockfile(FILE *);
int ftrylockfile(FILE *);
void funlockfile(FILE *);
int getc_unlocked(FILE *);
int getchar_unlocked(void);
int putc_unlocked(int, FILE *);
int putchar_unlocked(int);



int getw(FILE *);
int putw(int, FILE *);


__attribute__((__availability__(swift, unavailable, message="Use mkstemp(3) instead.")))

__attribute__((deprecated("This function is provided for compatibility reasons only.  Due to security concerns inherent in the design of tempnam(3), it is highly recommended that you use mkstemp(3) instead.")))

char *tempnam(const char *__dir, const char *__prefix) __asm("_" "tempnam" );
# 420 "/usr/include/stdio.h" 3 4
int fseeko(FILE * __stream, off_t __offset, int __whence);
off_t ftello(FILE * __stream);





int snprintf(char * restrict __str, size_t __size, const char * restrict __format, ...) __attribute__((__format__ (__printf__, 3, 4)));
int vfscanf(FILE * restrict __stream, const char * restrict __format, va_list) __attribute__((__format__ (__scanf__, 2, 0)));
int vscanf(const char * restrict __format, va_list) __attribute__((__format__ (__scanf__, 1, 0)));
int vsnprintf(char * restrict __str, size_t __size, const char * restrict __format, va_list) __attribute__((__format__ (__printf__, 3, 0)));
int vsscanf(const char * restrict __str, const char * restrict __format, va_list) __attribute__((__format__ (__scanf__, 2, 0)));
# 445 "/usr/include/stdio.h" 3 4
int dprintf(int, const char * restrict, ...) __attribute__((__format__ (__printf__, 2, 3))) __attribute__((availability(macosx,introduced=10.7)));
int vdprintf(int, const char * restrict, va_list) __attribute__((__format__ (__printf__, 2, 0))) __attribute__((availability(macosx,introduced=10.7)));
ssize_t getdelim(char ** restrict __linep, size_t * restrict __linecapp, int __delimiter, FILE * restrict __stream) __attribute__((availability(macosx,introduced=10.7)));
ssize_t getline(char ** restrict __linep, size_t * restrict __linecapp, FILE * restrict __stream) __attribute__((availability(macosx,introduced=10.7)));
# 458 "/usr/include/stdio.h" 3 4
extern const int sys_nerr;
extern const char *const sys_errlist[];

int asprintf(char ** restrict, const char * restrict, ...) __attribute__((__format__ (__printf__, 2, 3)));
char *ctermid_r(char *);
char *fgetln(FILE *, size_t *);
const char *fmtcheck(const char *, const char *);
int fpurge(FILE *);
void setbuffer(FILE *, char *, int);
int setlinebuf(FILE *);
int vasprintf(char ** restrict, const char * restrict, va_list) __attribute__((__format__ (__printf__, 2, 0)));
FILE *zopen(const char *, const char *, int);





FILE *funopen(const void *,
                 int (* _Nullable)(void *, char *, int),
                 int (* _Nullable)(void *, const char *, int),
                 fpos_t (* _Nullable)(void *, fpos_t, int),
                 int (* _Nullable)(void *));
# 498 "/usr/include/stdio.h" 3 4
# 1 "/usr/include/secure/_stdio.h" 1 3 4
# 31 "/usr/include/secure/_stdio.h" 3 4
# 1 "/usr/include/secure/_common.h" 1 3 4
# 32 "/usr/include/secure/_stdio.h" 2 3 4
# 42 "/usr/include/secure/_stdio.h" 3 4
extern int __sprintf_chk (char * restrict, int, size_t,
     const char * restrict, ...);
# 52 "/usr/include/secure/_stdio.h" 3 4
extern int __snprintf_chk (char * restrict, size_t, int, size_t,
      const char * restrict, ...);







extern int __vsprintf_chk (char * restrict, int, size_t,
      const char * restrict, va_list);







extern int __vsnprintf_chk (char * restrict, size_t, int, size_t,
       const char * restrict, va_list);
# 499 "/usr/include/stdio.h" 2 3 4
# 6 "main.c" 2

int main() {
    int f;
    const char *f_path = "test";
    mode_t f_attrib;
    f_attrib = 0000400 | 0000200 | 0000040 | 0000020 | 0000004;

    f = open(f_path, 0x0000);

    if (f == -1) {
        f = open(f_path, 0x0002 | 0x0200 | f_attrib);
        if (f != -1) {
            puts("创建一个新文件");
        } else {
            puts("无法创建新文件，退出程序");
            return 1;
        }
    } else {
        puts("文件打开成功");
        close(f);
        return 0;
    }

    return 0;
}
